<svg width="19" height="19" viewBox="0 0 19 19" fill="none" xmlns="http://www.w3.org/2000/svg">
<path d="M11.7492 13.2475H10.4466V8.98828C10.4466 8.91094 10.3834 8.84766 10.306 8.84766H9.25133C9.17399 8.84766 9.11071 8.91094 9.11071 8.98828V13.2475H7.81169C7.69391 13.2475 7.62887 13.3828 7.70094 13.4742L9.66969 15.965C9.68285 15.9818 9.69965 15.9954 9.71884 16.0048C9.73803 16.0141 9.75909 16.019 9.78044 16.019C9.80178 16.019 9.82284 16.0141 9.84203 16.0048C9.86122 15.9954 9.87802 15.9818 9.89118 15.965L11.8599 13.4742C11.932 13.3828 11.867 13.2475 11.7492 13.2475Z" fill="#2C97DE"/>
<path d="M15.0433 7.27793C14.2382 5.15449 12.1868 3.64453 9.78391 3.64453C7.38098 3.64453 5.32961 5.15273 4.52454 7.27617C3.01809 7.67168 1.9054 9.04453 1.9054 10.6758C1.9054 12.6182 3.47864 14.1914 5.41926 14.1914H6.12415C6.20149 14.1914 6.26477 14.1281 6.26477 14.0508V12.9961C6.26477 12.9187 6.20149 12.8555 6.12415 12.8555H5.41926C4.82688 12.8555 4.26965 12.6199 3.85481 12.1928C3.44172 11.7674 3.222 11.1943 3.24133 10.6002C3.25715 10.1361 3.41536 9.7002 3.70188 9.33281C3.99543 8.9584 4.40676 8.68594 4.86379 8.56465L5.53 8.39062L5.77434 7.74727C5.92551 7.34648 6.13645 6.97207 6.40188 6.63281C6.66392 6.29656 6.97432 6.00097 7.32297 5.75566C8.04543 5.24766 8.89622 4.97871 9.78391 4.97871C10.6716 4.97871 11.5224 5.24766 12.2448 5.75566C12.5947 6.00176 12.904 6.29707 13.1659 6.63281C13.4314 6.97207 13.6423 7.34824 13.7935 7.74727L14.0361 8.38887L14.7005 8.56465C15.6532 8.82129 16.3195 9.68789 16.3195 10.6758C16.3195 11.2576 16.0927 11.8061 15.6814 12.2174C15.4797 12.4203 15.2397 12.5812 14.9754 12.6907C14.7111 12.8002 14.4276 12.8562 14.1415 12.8555H13.4366C13.3593 12.8555 13.296 12.9187 13.296 12.9961V14.0508C13.296 14.1281 13.3593 14.1914 13.4366 14.1914H14.1415C16.0822 14.1914 17.6554 12.6182 17.6554 10.6758C17.6554 9.04629 16.5462 7.6752 15.0433 7.27793Z" fill="#2C97DE"/>
</svg>
