<svg width="34" height="33" viewBox="0 0 34 33" fill="none" xmlns="http://www.w3.org/2000/svg">
<path d="M16.7445 0.0214844C7.66295 0.0214844 0.397705 7.28673 0.397705 16.3683C0.397705 25.4498 7.66295 32.7151 16.7445 32.7151C25.8261 32.7151 33.0913 25.4498 33.0913 16.3683C33.0913 7.28673 25.8261 0.0214844 16.7445 0.0214844ZM16.7445 12.7357C18.7425 12.7357 20.3771 14.3703 20.3771 16.3683C20.3771 18.3662 18.7425 20.0009 16.7445 20.0009C14.7466 20.0009 13.1119 18.3662 13.1119 16.3683C13.1119 14.3703 14.7466 12.7357 16.7445 12.7357ZM21.8302 9.10304C21.8302 7.83162 22.92 6.92347 24.0098 6.92347C25.0995 6.92347 26.1893 8.01325 26.1893 9.10304C26.1893 10.1928 25.2812 11.2826 24.0098 11.2826C22.7383 11.2826 21.8302 10.3745 21.8302 9.10304ZM16.7445 29.0825C9.66089 29.0825 4.03033 23.4519 4.03033 16.3683H9.47926C9.47926 20.3642 12.7486 23.6335 16.7445 23.6335C20.7404 23.6335 24.0098 20.3642 24.0098 16.3683H29.4587C29.4587 23.4519 23.8281 29.0825 16.7445 29.0825Z" fill="white"/>
</svg>
