<svg width="20" height="21" viewBox="0 0 20 21" fill="none" xmlns="http://www.w3.org/2000/svg">
<path d="M10.2804 2.46094C9.90928 2.46094 9.54056 2.59219 9.2229 2.83219L8.23965 3.55469L7.10678 3.71094H7.08837L7.06996 3.73031C6.69842 3.81863 6.35826 4.01599 6.08892 4.29951C5.81958 4.58302 5.63209 4.94108 5.54818 5.33219L5.53037 5.35156V5.37094L5.38193 6.58219L4.69556 7.51969L4.67656 7.53906V7.55844C4.26153 8.25656 4.24312 9.15781 4.69556 9.82406L5.40034 10.8591L5.58618 11.9341L3.6749 14.9997L3.06274 15.9572H5.90146L6.58784 17.6366L7.01474 18.7109L7.6269 17.7341L9.50078 14.7653C10.0043 14.9828 10.5725 15.0028 11.06 14.7653L12.9338 17.7341L13.546 18.7109L13.9729 17.6366L14.6593 15.9572H17.498L16.8858 14.9997L15.0304 12.0316L15.1788 10.8597L15.8652 9.82469L15.8842 9.80531V9.78594C16.2992 9.08781 16.3176 8.20594 15.8652 7.53969L15.1788 6.50406L14.9562 5.33219H14.9746C14.9722 5.31719 14.9585 5.30719 14.9562 5.29281C14.8493 4.47531 14.2347 3.81156 13.4534 3.71094H13.4344L12.3211 3.55469L11.3378 2.83219C11.0308 2.59539 10.661 2.46558 10.2804 2.46094ZM10.2804 3.73031C10.4169 3.73031 10.5517 3.77406 10.6515 3.84781L11.7089 4.64844L11.839 4.74594L11.9874 4.76594L13.2865 4.96094H13.3043C13.5715 4.99219 13.7568 5.18781 13.7871 5.46906V5.50781L14.0287 6.89469L14.0465 7.03156L14.1397 7.14844L14.9003 8.26156C15.0422 8.46906 15.0607 8.82094 14.8819 9.12094L14.0471 10.3516L14.0281 10.5078L13.8429 11.8753V11.8941C13.833 11.9917 13.8012 12.0856 13.7502 12.1678L13.7128 12.1878V12.2066C13.6246 12.3181 13.498 12.3884 13.3607 12.4022H13.3233L11.969 12.6566L11.8206 12.6753L11.7089 12.7734L10.6515 13.5741C10.4543 13.7234 10.1017 13.7428 9.81665 13.5547L8.85181 12.7734L8.74018 12.6759L8.57334 12.6559L7.27421 12.4609H7.2564C7.17244 12.4531 7.0915 12.4242 7.02041 12.3765C6.94931 12.3289 6.89014 12.264 6.8479 12.1872C6.80844 12.1151 6.7832 12.0354 6.77368 11.9528V11.9141L6.53262 10.4884L6.51362 10.3322L6.42099 10.2147L5.6604 9.10156C5.51849 8.89406 5.50009 8.52281 5.67881 8.22281L6.42099 7.20719L6.51362 7.08969L6.53203 6.91406L6.69946 5.60531C6.70184 5.59594 6.71549 5.59594 6.71787 5.58594C6.75488 5.43548 6.82946 5.29819 6.93386 5.1883C7.03826 5.0784 7.16869 4.9999 7.31162 4.96094C7.32112 4.95844 7.32112 4.94406 7.33003 4.94156L8.57334 4.76531L8.72178 4.74656L8.85181 4.64844L9.90928 3.84781C10.009 3.77469 10.1438 3.73031 10.2804 3.73031ZM14.3808 13.2422L15.2904 14.7072H13.8607L13.7122 15.0978L13.3043 16.0934L12.0426 14.0622L12.3205 13.8478L13.4902 13.6328V13.6522C13.5038 13.6497 13.5127 13.6353 13.527 13.6328C13.8395 13.5854 14.1342 13.4504 14.3802 13.2422H14.3808ZM6.17993 13.2616C6.43775 13.5083 6.76164 13.6652 7.10737 13.7109H7.12578L8.25806 13.8672L8.51753 14.0822L7.25581 16.0934L6.8479 15.0978L6.69946 14.7072H5.2709L6.17993 13.2616Z" fill="#2C97DE"/>
</svg>
