<svg width="49" height="32" viewBox="0 0 49 32" fill="none" xmlns="http://www.w3.org/2000/svg">
<path fill-rule="evenodd" clip-rule="evenodd" d="M0.438354 31.6864H48.9941V0.964844H0.438354V31.6864Z" fill="#1B3771"/>
<path fill-rule="evenodd" clip-rule="evenodd" d="M24.7554 26.1409C27.0983 28.2763 30.2487 29.5776 33.6597 29.5776C41.0016 29.5776 46.9374 23.6414 46.9374 16.2993C46.9374 8.98362 41.0018 3.02148 33.6597 3.02148C30.2487 3.02148 27.0986 4.32332 24.7554 6.45814C22.0736 8.90516 20.3813 12.394 20.3813 16.2993C20.3813 20.2053 22.0736 23.7199 24.7554 26.1409Z" fill="#E9B040"/>
<path fill-rule="evenodd" clip-rule="evenodd" d="M45.1671 23.694C45.1671 23.4597 45.3489 23.2773 45.6097 23.2773C45.844 23.2773 46.0264 23.4597 46.0264 23.694C46.0264 23.9283 45.844 24.1366 45.6097 24.1366C45.5515 24.1371 45.4937 24.1259 45.4398 24.1039C45.3859 24.0818 45.3369 24.0492 45.2957 24.008C45.2545 23.9668 45.2219 23.9178 45.1998 23.8639C45.1778 23.81 45.1667 23.7522 45.1671 23.694ZM45.6097 24.0321C45.7656 24.0321 45.9222 23.8763 45.9222 23.6937C45.9222 23.5111 45.7658 23.3812 45.6097 23.3812C45.4274 23.3812 45.2713 23.5114 45.2713 23.6937C45.2713 23.876 45.4274 24.0321 45.6097 24.0321ZM45.5315 23.9023H45.4534V23.5116H45.6097C45.6357 23.5116 45.6879 23.5116 45.7139 23.5376C45.7399 23.5641 45.7658 23.5898 45.7658 23.6158C45.7658 23.668 45.7399 23.7199 45.6882 23.7199L45.7658 23.9023H45.6617L45.6097 23.7459H45.5315V23.9023ZM45.5315 23.668H45.6357C45.6617 23.668 45.6617 23.6415 45.6617 23.6158C45.6617 23.6158 45.6617 23.5898 45.6357 23.5898H45.5315V23.668Z" fill="#E9B040"/>
<path fill-rule="evenodd" clip-rule="evenodd" d="M29.0511 14.8933C28.9983 14.4208 28.9201 13.9516 28.8168 13.4876H20.6939C20.7997 13.0125 20.9301 12.5432 21.0845 12.0816H28.4264C28.2668 11.6044 28.0843 11.1352 27.8796 10.6756H21.631C21.8713 10.196 22.1319 9.72694 22.412 9.26957H27.0983C26.8074 8.76854 26.4673 8.29765 26.0833 7.86386H23.4274C23.818 7.36904 24.2866 6.90047 24.7552 6.45814C22.412 4.32304 19.2876 3.02148 15.8509 3.02148C8.50904 3.02148 2.57288 8.98362 2.57288 16.2993C2.57288 23.6411 8.50904 29.5776 15.8509 29.5776C19.2876 29.5776 22.4118 28.276 24.7552 26.1409C25.2235 25.6983 25.6926 25.23 26.109 24.7352H23.4271C23.0597 24.2883 22.7206 23.8188 22.4118 23.3295H27.0983C27.3893 22.8784 27.6503 22.4086 27.8796 21.9232H21.631C21.4175 21.4674 21.2349 20.9978 21.0842 20.5175H28.4261C28.5802 20.0557 28.7106 19.5864 28.8168 19.1112C28.9209 18.6429 28.9986 18.1738 29.0511 17.7055C29.1552 16.771 29.1552 15.8278 29.0511 14.8933Z" fill="#CC2131"/>
<path fill-rule="evenodd" clip-rule="evenodd" d="M45.1671 19.3717C45.1671 19.1374 45.3489 18.9551 45.6097 18.9551C45.844 18.9551 46.0264 19.1374 46.0264 19.3717C46.0264 19.606 45.844 19.8143 45.6097 19.8143C45.5515 19.8148 45.4937 19.8037 45.4397 19.7817C45.3858 19.7596 45.3368 19.727 45.2956 19.6858C45.2544 19.6446 45.2218 19.5956 45.1998 19.5417C45.1777 19.4878 45.1666 19.43 45.1671 19.3717ZM45.6097 19.7102C45.7656 19.7102 45.9222 19.5538 45.9222 19.3717C45.9222 19.1894 45.7658 19.0592 45.6097 19.0592C45.4274 19.0592 45.2713 19.1894 45.2713 19.3717C45.2713 19.5535 45.4274 19.7102 45.6097 19.7102ZM45.5315 19.58H45.4534V19.1894H45.6097C45.6357 19.1894 45.6879 19.1894 45.7139 19.2153C45.7399 19.2419 45.7658 19.2676 45.7658 19.2935C45.7658 19.3457 45.7399 19.3977 45.6882 19.3977L45.7658 19.58H45.6617L45.6097 19.4236H45.5315V19.58ZM45.5315 19.346H45.6357C45.6617 19.346 45.6617 19.3195 45.6617 19.2938C45.6617 19.2938 45.6617 19.2678 45.6357 19.2678H45.5315V19.346Z" fill="white"/>
<path fill-rule="evenodd" clip-rule="evenodd" d="M20.2514 20.1272C19.8088 20.2573 19.4963 20.3095 19.1578 20.3095C18.481 20.3095 18.0643 19.8929 18.0643 19.1115C18.0643 18.9557 18.0903 18.7991 18.1163 18.6173L18.1942 18.0965L18.2724 17.6533L18.8973 13.9045H20.2771L20.121 14.7375H20.9802L20.7719 16.1175H19.9129L19.5223 18.3565C19.5223 18.4347 19.4963 18.5123 19.4963 18.5648C19.4963 18.8513 19.6524 18.9814 19.9911 18.9814C20.1734 18.9814 20.2776 18.9554 20.4337 18.9292L20.2514 20.1272ZM24.7033 20.0747C24.2236 20.2288 23.723 20.308 23.2192 20.3095C21.683 20.3095 20.7719 19.4762 20.7719 17.8619C20.7719 15.9876 21.8394 14.5816 23.2974 14.5816C24.4691 14.5816 25.2239 15.3627 25.2239 16.5863C25.2239 16.977 25.1719 17.3677 25.0421 17.9401H22.1779V18.0965C22.1779 18.7471 22.5945 19.0596 23.4275 19.0596C23.9483 19.0596 24.4168 18.9554 24.9376 18.7212L24.7033 20.0747ZM23.8441 16.8204V16.5604C23.8441 16.1178 23.5839 15.8575 23.1672 15.8575C22.6987 15.8575 22.3862 16.196 22.2561 16.8206H23.8441V16.8204ZM9.23826 20.2053H7.8063L8.63956 15.0243L6.79096 20.2053H5.80188L5.69772 15.0502L4.81224 20.2053H3.4325L4.55198 13.4619H6.60862L6.68708 17.6276L8.06683 13.4619H10.358L9.23826 20.2053ZM12.7012 17.7578C12.5451 17.7578 12.5188 17.7318 12.4147 17.7318C11.6076 17.7318 11.191 18.0443 11.191 18.5651C11.191 18.9292 11.399 19.1381 11.7115 19.1381C12.4147 19.1381 12.6749 18.5648 12.7012 17.7578ZM13.8466 20.2053H12.597L12.623 19.6323C12.3105 20.0749 11.8939 20.3095 11.1128 20.3095C10.41 20.3095 9.83723 19.6846 9.83723 18.7991C9.83723 18.5391 9.88917 18.3048 9.94112 18.0965C10.1754 17.237 11.0346 16.7162 12.3365 16.6902C12.4926 16.6902 12.7531 16.6902 12.9611 16.7162C13.0131 16.5344 13.0131 16.4562 13.0131 16.3521C13.0131 15.9876 12.7269 15.8835 12.05 15.8835C11.6333 15.8835 11.191 15.9617 10.8523 16.0396L10.6702 16.1178H10.5661L10.7744 14.8941C11.4513 14.6858 11.9198 14.6076 12.4406 14.6076C13.6902 14.6076 14.3412 15.1544 14.3412 16.2219C14.3412 16.4819 14.3671 16.6902 14.263 17.2892L13.9767 19.242L13.9248 19.5804L13.8729 19.8663V20.0487L13.8466 20.2053ZM31.6289 14.79C32.019 14.79 32.3837 14.8938 32.9045 15.1544L33.1388 13.6702C33.0086 13.6183 32.9824 13.6183 32.8003 13.5401L32.2013 13.4099C32.019 13.358 31.8107 13.332 31.5507 13.332C30.8476 13.332 30.4309 13.332 29.9886 13.6183C29.7543 13.7484 29.4678 13.9567 29.1296 14.3214L28.9733 14.2692L27.4894 15.3108L27.5675 14.738H26.0312L25.1722 20.2056H26.6044L27.1252 17.2638C27.1252 17.2638 27.3335 16.8472 27.4377 16.7167C27.6977 16.3783 27.932 16.3783 28.2185 16.3783H28.3226C28.2967 16.6908 28.2704 17.0555 28.2704 17.4199C28.2704 19.2163 29.286 20.336 30.8481 20.336C31.2388 20.336 31.5772 20.2838 32.0977 20.1277L32.3577 18.5913C31.8894 18.8261 31.4987 18.9298 31.1343 18.9298C30.3011 18.9298 29.8063 18.3313 29.8063 17.2898C29.8063 15.8313 30.5351 14.79 31.6289 14.79ZM43.7869 13.4619L43.4744 15.3887C43.136 14.8679 42.7196 14.6336 42.1728 14.6336C41.418 14.6336 40.7149 15.0502 40.2723 15.8572L39.3609 15.3105L39.4391 14.7377H37.9027L37.0177 20.2053H38.4757L38.944 17.2635C38.944 17.2635 39.3087 16.8469 39.4128 16.7165C39.6211 16.4565 39.8554 16.378 40.0378 16.378C39.8648 16.8988 39.7769 17.4439 39.7772 17.9926C39.7772 19.3724 40.5063 20.2833 41.5476 20.2833C42.0684 20.2833 42.4851 20.1015 42.8757 19.6589L42.7975 20.2056H44.1773L45.2711 13.4622H43.7869V13.4619ZM42.043 18.9032C41.5482 18.9032 41.3139 18.5648 41.3139 17.836C41.3139 16.7687 41.7565 15.9876 42.4331 15.9876C42.9279 15.9876 43.1885 16.378 43.1885 17.0812C43.1885 18.1484 42.7196 18.9032 42.043 18.9032ZM35.4037 17.7578C35.2479 17.7578 35.2219 17.7318 35.1177 17.7318C34.3105 17.7318 33.8938 18.0443 33.8938 18.5651C33.8938 18.9292 34.1021 19.1381 34.4146 19.1381C35.1175 19.1381 35.3777 18.5648 35.4037 17.7578ZM36.5492 20.2053H35.3001L35.3261 19.6323C35.0136 20.0749 34.597 20.3095 33.8156 20.3095C33.1131 20.3095 32.4881 19.7105 32.4881 18.7991C32.5141 17.4975 33.4772 16.6902 35.0393 16.6902C35.1957 16.6902 35.4559 16.6902 35.6642 16.7162C35.7164 16.5344 35.7164 16.4562 35.7164 16.3521C35.7164 15.9876 35.4299 15.8835 34.7528 15.8835C34.3361 15.8835 33.8679 15.9617 33.5554 16.0396L33.3471 16.1178H33.2689L33.4772 14.8941C34.1544 14.6858 34.6227 14.6076 35.1434 14.6076C36.3931 14.6076 37.044 15.1544 37.044 16.2219C37.044 16.4819 37.0699 16.6902 36.9658 17.2892L36.6798 19.242L36.6276 19.5804L36.5757 19.8663L36.5492 20.0487V20.2053ZM16.8407 15.9095C17.1272 15.9095 17.5176 15.9354 17.9342 15.9876L18.1425 14.7118C17.7259 14.6598 17.1794 14.6076 16.841 14.6076C15.2526 14.6076 14.7061 15.4669 14.7061 16.4822C14.7061 17.1328 15.0183 17.6276 15.7734 17.9661C16.3721 18.2526 16.4763 18.3051 16.4763 18.5391C16.4763 18.8775 16.1638 19.0859 15.5911 19.0859C15.1747 19.0859 14.784 19.0077 14.3152 18.8775L14.1591 20.1272H14.1853L14.4456 20.1794C14.5235 20.2053 14.6539 20.2313 14.81 20.2313C15.1744 20.2833 15.4607 20.2833 15.643 20.2833C17.2313 20.2833 17.9082 19.6848 17.9082 18.4609C17.9082 17.7061 17.5438 17.2635 16.8147 16.951C16.216 16.6645 16.1378 16.6386 16.1378 16.378C16.1378 16.1178 16.3981 15.9095 16.8407 15.9095Z" fill="#1B3771"/>
<path fill-rule="evenodd" clip-rule="evenodd" d="M33.5293 13.2542L33.2944 14.7121C32.7736 14.4519 32.4095 14.3477 32.0188 14.3477C30.9256 14.3477 30.1708 15.3893 30.1708 16.8732C30.1708 17.8888 30.6916 18.5132 31.524 18.5132C31.8887 18.5132 32.2794 18.4096 32.748 18.1747L32.488 19.7111C31.9672 19.8413 31.629 19.8935 31.2124 19.8935C29.676 19.8935 28.7129 18.7997 28.7129 17.0033C28.7129 14.582 30.0404 12.916 31.9409 12.916C32.2015 12.916 32.4098 12.942 32.5921 12.968L33.1906 13.1241C33.3729 13.202 33.3989 13.202 33.5293 13.2542ZM28.9212 14.2695C28.869 14.2435 28.817 14.2435 28.7648 14.2435C28.2965 14.2435 28.0357 14.4778 27.5934 15.1287L27.7235 14.2955H26.396L25.5365 19.789H26.9687C27.4895 16.4306 27.6194 15.8576 28.3225 15.8576H28.4266C28.5568 15.2067 28.7132 14.7121 28.9734 14.2692H28.9212V14.2695ZM20.6156 19.7109C20.225 19.841 19.9128 19.8932 19.5741 19.8932C18.845 19.8932 18.4286 19.4766 18.4286 18.6953C18.4286 18.5394 18.4546 18.3828 18.4805 18.201L18.5585 17.654L18.6366 17.2373L19.2616 13.4885H20.6936L20.5375 14.2955H21.2666L21.0582 15.6493H20.3294L19.9388 17.9145C19.9388 18.0186 19.9128 18.0968 19.9128 18.1488C19.9128 18.4353 20.0689 18.5654 20.4076 18.5654C20.5899 18.5654 20.6941 18.5394 20.7983 18.5132L20.6156 19.7109ZM15.0701 16.0399C15.0701 16.7165 15.4086 17.2113 16.1637 17.5498C16.7624 17.8363 16.8405 17.9145 16.8405 18.1747C16.8405 18.5132 16.5803 18.6696 16.0073 18.6696C15.5907 18.6696 15.2003 18.5914 14.7314 18.4353L14.5231 19.7109H14.6013L14.8618 19.7631C14.9799 19.7989 15.1028 19.8164 15.2262 19.815C15.5647 19.841 15.8512 19.867 16.0333 19.867C17.5434 19.867 18.2463 19.2945 18.2463 18.0446C18.2463 17.2898 17.96 16.8472 17.2309 16.5082C16.632 16.2482 16.554 16.17 16.554 15.9358C16.554 15.6233 16.7883 15.4672 17.2569 15.4672C17.5434 15.4672 17.9338 15.5191 18.2982 15.5713L18.5065 14.2955C18.1421 14.2435 17.5691 14.1913 17.2309 14.1913C15.6169 14.1913 15.0701 15.0246 15.0701 16.0399ZM44.5424 19.789H43.1626L43.2403 19.2423C42.8496 19.6589 42.433 19.8407 41.9122 19.8407C40.8712 19.8407 40.1683 18.9558 40.1683 17.576C40.1683 15.7534 41.2356 14.2173 42.5112 14.2173C43.0842 14.2173 43.5008 14.4516 43.8909 14.9724L44.2034 13.0456H45.6356L44.5424 19.789ZM42.407 18.4869C43.0842 18.4869 43.5525 17.7321 43.5525 16.6389C43.5525 15.9617 43.2925 15.5713 42.7977 15.5713C42.147 15.5713 41.6779 16.3261 41.6779 17.4197C41.6779 18.1228 41.9122 18.4869 42.407 18.4869ZM25.0154 19.6589C24.5209 19.8147 24.0523 19.8932 23.5315 19.8932C21.9172 19.8932 21.0842 19.0337 21.0842 17.4456C21.0842 15.5454 22.1518 14.1654 23.6097 14.1654C24.7814 14.1654 25.5362 14.9464 25.5362 16.17C25.5362 16.5607 25.4843 16.9514 25.3804 17.5238H22.5165C22.4902 17.602 22.4902 17.628 22.4902 17.6802C22.4902 18.3051 22.9068 18.6433 23.7661 18.6433C24.2609 18.6433 24.7295 18.5392 25.2502 18.3049L25.0154 19.6589ZM24.2087 16.4041V16.1178C24.2087 15.6752 23.9741 15.415 23.5318 15.415C23.0895 15.415 22.7507 15.7794 22.6206 16.4041H24.2087ZM9.60282 19.789H8.17086L9.00384 14.608L7.15525 19.789H6.16616L6.06201 14.6339L5.1768 19.789H3.849L4.96849 13.0456H7.02512L7.10331 17.2114L8.48333 13.0456H10.7223L9.60282 19.789ZM13.1696 17.3415C13.0132 17.3155 12.9353 17.3155 12.8312 17.3155C12.0241 17.3155 11.6075 17.602 11.6075 18.1488C11.6075 18.4872 11.8156 18.7218 12.128 18.7218C12.727 18.7218 13.1436 18.1488 13.1696 17.3415ZM14.2109 19.789H13.0132L13.0395 19.216C12.6751 19.6592 12.2062 19.8667 11.5293 19.8667C10.7483 19.8667 10.2275 19.2683 10.2275 18.3828C10.2275 17.0553 11.1389 16.2739 12.753 16.2739C12.9091 16.2739 13.1174 16.2739 13.3257 16.2999C13.3776 16.1438 13.3776 16.0659 13.3776 15.9617C13.3776 15.5973 13.1434 15.4669 12.4665 15.4669C12.0498 15.4669 11.5813 15.5189 11.2688 15.623L11.0605 15.675L10.9303 15.7009L11.1387 14.4773C11.8675 14.269 12.3361 14.1908 12.8569 14.1908C14.1065 14.1908 14.7574 14.7375 14.7574 15.7791C14.7574 16.0656 14.7311 16.2737 14.627 16.8726L14.3408 18.8254L14.2888 19.1638L14.2626 19.4498L14.2366 19.6321L14.2109 19.789ZM35.8724 17.3415C35.7166 17.3155 35.6381 17.3155 35.534 17.3155C34.7267 17.3155 34.31 17.602 34.31 18.1488C34.31 18.4872 34.5184 18.7218 34.8308 18.7218C35.4036 18.7218 35.8464 18.1488 35.8724 17.3415ZM36.9137 19.789H35.7163L35.7423 19.216C35.3776 19.6592 34.8833 19.8667 34.2319 19.8667C33.4511 19.8667 32.9043 19.2683 32.9043 18.3828C32.9043 17.0553 33.8417 16.2739 35.4555 16.2739C35.6113 16.2739 35.8202 16.2739 36.028 16.2999C36.0802 16.1438 36.0802 16.0659 36.0802 15.9617C36.0802 15.5973 35.8459 15.4669 35.1687 15.4669C34.7521 15.4669 34.2838 15.5189 33.9713 15.623L33.763 15.675L33.6329 15.7009L33.8412 14.4773C34.5697 14.269 35.0386 14.1908 35.5594 14.1908C36.809 14.1908 37.4599 14.7375 37.4599 15.7791C37.4599 16.0656 37.434 16.2737 37.3298 16.8726L37.0433 18.8254L36.9913 19.1638L36.9391 19.4498L36.9132 19.6321V19.789H36.9137ZM40.7673 14.2695C40.7408 14.2435 40.6891 14.2435 40.6366 14.2435C40.1683 14.2435 39.8818 14.4778 39.4392 15.1287L39.5693 14.2955H38.2678L37.3823 19.789H38.8402C39.335 16.4306 39.4914 15.8576 40.1683 15.8576H40.2725C40.4026 15.2067 40.5849 14.7121 40.8192 14.2692H40.7673V14.2695Z" fill="white"/>
</svg>
