<svg width="24" height="23" viewBox="0 0 24 23" fill="none" xmlns="http://www.w3.org/2000/svg">
<path d="M23.185 20.6599L18.8717 16.3985C20.2633 14.6417 21.0184 12.4723 21.0156 10.239C21.0156 8.25004 20.4204 6.30574 19.3052 4.65197C18.19 2.99821 16.605 1.70926 14.7505 0.948118C12.896 0.186974 10.8554 -0.0121753 8.88674 0.375852C6.91805 0.76388 5.10968 1.72166 3.69033 3.12807C2.27098 4.53448 1.30439 6.32635 0.912787 8.2771C0.521188 10.2278 0.722171 12.2498 1.49032 14.0874C2.25847 15.925 3.55928 17.4956 5.22826 18.6006C6.89724 19.7056 8.85943 20.2954 10.8667 20.2954C13.1206 20.2982 15.31 19.5499 17.0829 18.171L21.3835 22.4449C21.5015 22.5627 21.6418 22.6563 21.7964 22.7201C21.9509 22.7839 22.1168 22.8168 22.2842 22.8168C22.4517 22.8168 22.6175 22.7839 22.7721 22.7201C22.9267 22.6563 23.067 22.5627 23.185 22.4449C23.3039 22.3281 23.3982 22.189 23.4626 22.0359C23.527 21.8827 23.5602 21.7184 23.5602 21.5524C23.5602 21.3865 23.527 21.2222 23.4626 21.069C23.3982 20.9158 23.3039 20.7768 23.185 20.6599ZM3.25501 10.239C3.25501 8.74728 3.70143 7.28905 4.53781 6.04873C5.37419 4.80841 6.56298 3.8417 7.95383 3.27084C9.34469 2.69998 10.8751 2.55062 12.3517 2.84164C13.8282 3.13266 15.1845 3.85099 16.249 4.9058C17.3135 5.96061 18.0384 7.30451 18.3321 8.76757C18.6258 10.2306 18.4751 11.7471 17.899 13.1253C17.3229 14.5035 16.3473 15.6814 15.0955 16.5102C13.8438 17.3389 12.3721 17.7813 10.8667 17.7813C8.84795 17.7813 6.91189 16.9866 5.48442 15.5722C4.05695 14.1577 3.25501 12.2393 3.25501 10.239Z" fill="#010643"/>
</svg>
